[
    {
        "date": "2024-01-02",
        "open": 187.14999389648438,
        "high": 188.44000244140625,
        "low": 183.88999938964844,
        "close": 185.63999938964844
    },
    {
        "date": "2024-01-03",
        "open": 184.22000122070312,
        "high": 185.8800048828125,
        "low": 183.42999267578125,
        "close": 184.25
    },
    {
        "date": "2024-01-04",
        "open": 182.14999389648438,
        "high": 183.08999633789062,
        "low": 180.8800048828125,
        "close": 181.91000366210938
    },
    {
        "date": "2024-01-05",
        "open": 181.99000549316406,
        "high": 182.75999450683594,
        "low": 180.1699981689453,
        "close": 181.17999267578125
    },
    {
        "date": "2024-01-08",
        "open": 182.08999633789062,
        "high": 185.60000610351562,
        "low": 181.5,
        "close": 185.55999755859375
    },
    {
        "date": "2024-01-09",
        "open": 183.9199981689453,
        "high": 185.14999389648438,
        "low": 182.72999572753906,
        "close": 185.13999938964844
    },
    {
        "date": "2024-01-10",
        "open": 184.35000610351562,
        "high": 186.39999389648438,
        "low": 183.9199981689453,
        "close": 186.19000244140625
    },
    {
        "date": "2024-01-11",
        "open": 186.5399932861328,
        "high": 187.0500030517578,
        "low": 183.6199951171875,
        "close": 185.58999633789062
    },
    {
        "date": "2024-01-12",
        "open": 186.05999755859375,
        "high": 186.74000549316406,
        "low": 185.19000244140625,
        "close": 185.9199981689453
    },
    {
        "date": "2024-01-16",
        "open": 182.16000366210938,
        "high": 184.25999450683594,
        "low": 180.92999267578125,
        "close": 183.6300048828125
    },
    {
        "date": "2024-01-17",
        "open": 181.27000427246094,
        "high": 182.92999267578125,
        "low": 180.3000030517578,
        "close": 182.67999267578125
    },
    {
        "date": "2024-01-18",
        "open": 186.08999633789062,
        "high": 189.13999938964844,
        "low": 185.8300018310547,
        "close": 188.6300048828125
    },
    {
        "date": "2024-01-19",
        "open": 189.3300018310547,
        "high": 191.9499969482422,
        "low": 188.82000732421875,
        "close": 191.55999755859375
    },
    {
        "date": "2024-01-22",
        "open": 192.3000030517578,
        "high": 195.3300018310547,
        "low": 192.25999450683594,
        "close": 193.88999938964844
    },
    {
        "date": "2024-01-23",
        "open": 195.02000427246094,
        "high": 195.75,
        "low": 193.8300018310547,
        "close": 195.17999267578125
    },
    {
        "date": "2024-01-24",
        "open": 195.4199981689453,
        "high": 196.3800048828125,
        "low": 194.33999633789062,
        "close": 194.5
    },
    {
        "date": "2024-01-25",
        "open": 195.22000122070312,
        "high": 196.27000427246094,
        "low": 193.11000061035156,
        "close": 194.1699981689453
    },
    {
        "date": "2024-01-26",
        "open": 194.27000427246094,
        "high": 194.75999450683594,
        "low": 191.94000244140625,
        "close": 192.4199981689453
    },
    {
        "date": "2024-01-29",
        "open": 192.00999450683594,
        "high": 192.1999969482422,
        "low": 189.5800018310547,
        "close": 191.72999572753906
    },
    {
        "date": "2024-01-30",
        "open": 190.94000244140625,
        "high": 191.8000030517578,
        "low": 187.47000122070312,
        "close": 188.0399932861328
    },
    {
        "date": "2024-01-31",
        "open": 187.0399932861328,
        "high": 187.10000610351562,
        "low": 184.35000610351562,
        "close": 184.39999389648438
    },
    {
        "date": "2024-02-01",
        "open": 183.99000549316406,
        "high": 186.9499969482422,
        "low": 183.82000732421875,
        "close": 186.86000061035156
    },
    {
        "date": "2024-02-02",
        "open": 179.86000061035156,
        "high": 187.3300018310547,
        "low": 179.25,
        "close": 185.85000610351562
    },
    {
        "date": "2024-02-05",
        "open": 188.14999389648438,
        "high": 189.25,
        "low": 185.83999633789062,
        "close": 187.67999267578125
    },
    {
        "date": "2024-02-06",
        "open": 186.86000061035156,
        "high": 189.30999755859375,
        "low": 186.77000427246094,
        "close": 189.3000030517578
    },
    {
        "date": "2024-02-07",
        "open": 190.63999938964844,
        "high": 191.0500030517578,
        "low": 188.61000061035156,
        "close": 189.41000366210938
    },
    {
        "date": "2024-02-08",
        "open": 189.38999938964844,
        "high": 189.5399932861328,
        "low": 187.35000610351562,
        "close": 188.32000732421875
    },
    {
        "date": "2024-02-09",
        "open": 188.64999389648438,
        "high": 189.99000549316406,
        "low": 188,
        "close": 188.85000610351562
    },
    {
        "date": "2024-02-12",
        "open": 188.4199981689453,
        "high": 188.6699981689453,
        "low": 186.7899932861328,
        "close": 187.14999389648438
    },
    {
        "date": "2024-02-13",
        "open": 185.77000427246094,
        "high": 186.2100067138672,
        "low": 183.50999450683594,
        "close": 185.0399932861328
    },
    {
        "date": "2024-02-14",
        "open": 185.32000732421875,
        "high": 185.52999877929688,
        "low": 182.44000244140625,
        "close": 184.14999389648438
    },
    {
        "date": "2024-02-15",
        "open": 183.5500030517578,
        "high": 184.49000549316406,
        "low": 181.35000610351562,
        "close": 183.86000061035156
    },
    {
        "date": "2024-02-16",
        "open": 183.4199981689453,
        "high": 184.85000610351562,
        "low": 181.6699981689453,
        "close": 182.30999755859375
    },
    {
        "date": "2024-02-20",
        "open": 181.7899932861328,
        "high": 182.42999267578125,
        "low": 180,
        "close": 181.55999755859375
    },
    {
        "date": "2024-02-21",
        "open": 181.94000244140625,
        "high": 182.88999938964844,
        "low": 180.66000366210938,
        "close": 182.32000732421875
    },
    {
        "date": "2024-02-22",
        "open": 183.47999572753906,
        "high": 184.9600067138672,
        "low": 182.4600067138672,
        "close": 184.3699951171875
    },
    {
        "date": "2024-02-23",
        "open": 185.00999450683594,
        "high": 185.0399932861328,
        "low": 182.22999572753906,
        "close": 182.52000427246094
    },
    {
        "date": "2024-02-26",
        "open": 182.24000549316406,
        "high": 182.75999450683594,
        "low": 180.64999389648438,
        "close": 181.16000366210938
    },
    {
        "date": "2024-02-27",
        "open": 181.10000610351562,
        "high": 183.9199981689453,
        "low": 179.55999755859375,
        "close": 182.6300048828125
    },
    {
        "date": "2024-02-28",
        "open": 182.50999450683594,
        "high": 183.1199951171875,
        "low": 180.1300048828125,
        "close": 181.4199981689453
    },
    {
        "date": "2024-02-29",
        "open": 181.27000427246094,
        "high": 182.57000732421875,
        "low": 179.52999877929688,
        "close": 180.75
    },
    {
        "date": "2024-03-01",
        "open": 179.5500030517578,
        "high": 180.52999877929688,
        "low": 177.3800048828125,
        "close": 179.66000366210938
    },
    {
        "date": "2024-03-04",
        "open": 176.14999389648438,
        "high": 176.89999389648438,
        "low": 173.7899932861328,
        "close": 175.10000610351562
    },
    {
        "date": "2024-03-05",
        "open": 170.75999450683594,
        "high": 172.0399932861328,
        "low": 169.6199951171875,
        "close": 170.1199951171875
    },
    {
        "date": "2024-03-06",
        "open": 171.05999755859375,
        "high": 171.24000549316406,
        "low": 168.67999267578125,
        "close": 169.1199951171875
    },
    {
        "date": "2024-03-07",
        "open": 169.14999389648438,
        "high": 170.72999572753906,
        "low": 168.49000549316406,
        "close": 169
    },
    {
        "date": "2024-03-08",
        "open": 169,
        "high": 173.6999969482422,
        "low": 168.94000244140625,
        "close": 170.72999572753906
    },
    {
        "date": "2024-03-11",
        "open": 172.94000244140625,
        "high": 174.3800048828125,
        "low": 172.0500030517578,
        "close": 172.75
    },
    {
        "date": "2024-03-12",
        "open": 173.14999389648438,
        "high": 174.02999877929688,
        "low": 171.00999450683594,
        "close": 173.22999572753906
    },
    {
        "date": "2024-03-13",
        "open": 172.77000427246094,
        "high": 173.19000244140625,
        "low": 170.75999450683594,
        "close": 171.1300048828125
    },
    {
        "date": "2024-03-14",
        "open": 172.91000366210938,
        "high": 174.30999755859375,
        "low": 172.0500030517578,
        "close": 173
    },
    {
        "date": "2024-03-15",
        "open": 171.1699981689453,
        "high": 172.6199951171875,
        "low": 170.2899932861328,
        "close": 172.6199951171875
    },
    {
        "date": "2024-03-18",
        "open": 175.57000732421875,
        "high": 177.7100067138672,
        "low": 173.52000427246094,
        "close": 173.72000122070312
    },
    {
        "date": "2024-03-19",
        "open": 174.33999633789062,
        "high": 176.61000061035156,
        "low": 173.02999877929688,
        "close": 176.0800018310547
    },
    {
        "date": "2024-03-20",
        "open": 175.72000122070312,
        "high": 178.6699981689453,
        "low": 175.08999633789062,
        "close": 178.6699981689453
    },
    {
        "date": "2024-03-21",
        "open": 177.0500030517578,
        "high": 177.49000549316406,
        "low": 170.83999633789062,
        "close": 171.3699951171875
    },
    {
        "date": "2024-03-22",
        "open": 171.75999450683594,
        "high": 173.0500030517578,
        "low": 170.05999755859375,
        "close": 172.27999877929688
    },
    {
        "date": "2024-03-25",
        "open": 170.57000732421875,
        "high": 171.94000244140625,
        "low": 169.4499969482422,
        "close": 170.85000610351562
    },
    {
        "date": "2024-03-26",
        "open": 170,
        "high": 171.4199981689453,
        "low": 169.5800018310547,
        "close": 169.7100067138672
    },
    {
        "date": "2024-03-27",
        "open": 170.41000366210938,
        "high": 173.60000610351562,
        "low": 170.11000061035156,
        "close": 173.30999755859375
    },
    {
        "date": "2024-03-28",
        "open": 171.75,
        "high": 172.22999572753906,
        "low": 170.50999450683594,
        "close": 171.47999572753906
    },
    {
        "date": "2024-04-01",
        "open": 171.19000244140625,
        "high": 171.25,
        "low": 169.47999572753906,
        "close": 170.02999877929688
    },
    {
        "date": "2024-04-02",
        "open": 169.0800018310547,
        "high": 169.33999633789062,
        "low": 168.22999572753906,
        "close": 168.83999633789062
    },
    {
        "date": "2024-04-03",
        "open": 168.7899932861328,
        "high": 170.67999267578125,
        "low": 168.5800018310547,
        "close": 169.64999389648438
    },
    {
        "date": "2024-04-04",
        "open": 170.2899932861328,
        "high": 171.9199981689453,
        "low": 168.82000732421875,
        "close": 168.82000732421875
    },
    {
        "date": "2024-04-05",
        "open": 169.58999633789062,
        "high": 170.38999938964844,
        "low": 168.9499969482422,
        "close": 169.5800018310547
    },
    {
        "date": "2024-04-08",
        "open": 169.02999877929688,
        "high": 169.1999969482422,
        "low": 168.24000549316406,
        "close": 168.4499969482422
    },
    {
        "date": "2024-04-09",
        "open": 168.6999969482422,
        "high": 170.0800018310547,
        "low": 168.35000610351562,
        "close": 169.6699981689453
    },
    {
        "date": "2024-04-10",
        "open": 168.8000030517578,
        "high": 169.08999633789062,
        "low": 167.11000061035156,
        "close": 167.77999877929688
    }
]
