5016.00
8730.00
9063.00
11874.00
12570.00
15224.00
16918.00
20392.00
20956.00
23471.00
25106.00
26249.00
30203.00
32929.00
34932.00
35277.00
38332.00
38757.00
40238.00
42100.00
43380.00
43818.00
44114.00
44586.00
47250.00
47460.00
47990.00
53143.00
53363.00
53656.00
54300.00
54635.00
60111.00
66626.00
72502.00
73067.00
75318.00
101072.00
102295.00
111231.00
116220.00
117576.00
122052.00
122112.00
129431.00
130495.00
131566.00
132954.00
133231.00
135196.00
149455.00
161310.00
164058.00
167466.00
172239.00
208735.00
233681.00
273040.00
280301.00
280569.00
280739.00
294279.00
303869.00
304482.00
306221.00
314372.00
330313.00
370316.00
383682.00
397390.00
409930.00
445558.00
448960.00
452103.00
456336.00
469438.00
478039.00
504151.00
510930.00
519472.00
521159.00
552106.00
557943.00
616938.00
649795.00
650972.00
653221.00
695115.00
698177.00
705283.00
717811.00
749224.00
788836.00
789103.00
806689.00
826533.00
833069.00
841008.00
847185.00
854779.00
855847.00
870999.00
913792.00
916895.00
941206.00
981553.00
986485.00
994707.00
1025987.00
1027530.00
1092818.00
1119006.00
1122814.00
1133345.00
1149797.00
1150864.00
1182046.00
1192396.00
1199911.00
1206644.00
1292665.00
1293502.00
1407515.00
1415386.00
1417141.00
1421444.00
1441682.00
1526460.00
1566052.00
1598169.00
1647164.00
1686808.00
1689056.00
1729926.00
1779556.00
1794358.00
1796705.00
1803942.00
1818048.00
1825716.00
1831060.00
1834102.00
1851036.00
1868242.00
1878290.00
1881631.00
1889182.00
1890716.00
1898050.00
1911761.00
1940370.00
1942141.00
2007034.00
2022638.00
2039356.00
2041731.00
2045960.00
2051088.00
2062721.00
2191893.00
2215798.00
2239672.00
2247027.00
2297169.00
2312130.00
2334553.00
2362746.00
2378224.00
2402498.00
2408261.00
2468146.00
2480157.00
2492678.00
2517030.00
2518755.00
2522025.00
2534689.00
2536855.00
2544428.00
2544476.00
2546318.00
2557930.00
2574581.00
2586469.00
2601377.00
2616625.00
2635421.00
2637708.00
2646730.00
2647002.00
2653477.00
2719921.00
2767500.00
2778215.00
2779730.00
2782000.00
2783793.00
2790096.00
2794938.00
2846842.00
2860360.00
2884240.00
2907838.00
2908672.00
2924952.00
2940401.00
2944203.00
2968017.00
3009889.00
3010084.00
3078603.00
3089549.00
3096373.00
3104642.00
3116038.00
3122441.00
3131280.00
3135823.00
3137660.00
3143429.00
3168602.00
3177258.00
3223428.00
3243273.00
3265600.00
3270609.00
3271593.00
3277118.00
3286747.00
3294780.00
3295766.00
3297467.00
3298427.00
3300298.00
3319200.00
3319579.00
3322404.00
3351013.00
3355675.00
3367841.00
3431034.00
3448396.00
3479375.00
3503175.00
3503619.00
3513512.00
3517800.00
3529412.00
3536238.00
3548968.00
3557048.00
3590116.00
3596150.00
3600327.00
3606953.00
3649384.00
3679578.00
3682718.00
3708842.00
3718603.00
3725838.00
3845874.00
3850677.00
3857460.00
3865867.00
3875766.00
3887931.00
3898026.00
3908172.00
3931443.00
3957080.00
3973127.00
3977594.00
3997067.00
4032993.00
4039724.00
4040206.00
4044315.00
4044861.00
4059669.00
4075526.00
4093888.00
4103535.00
4132529.00
4167900.00
4178329.00
4183635.00
4222454.00
4287319.00
4297098.00
4307611.00
4312102.00
4314190.00
4318558.00
4326680.00
4343724.00
4378510.00
4391250.00
4414681.00
4419637.00
4421346.00
4427575.00
4500091.00
4511604.00
4530796.00
4542549.00
4544143.00
4582089.00
4624741.00
4625501.00
4641010.00
4645742.00
4652130.00
4660877.00
4663834.00
4663885.00
4664744.00
4677055.00
4683005.00
4748731.00
4788607.00
4810531.00
4811983.00
4833899.00
4837013.00
4844074.00
4857239.00
4906340.00
4935168.00
4941909.00
4942584.00
4956801.00
4961679.00
4976840.00
4998018.00
5012332.00
5080125.00
5093083.00
5096396.00
5117779.00
5138209.00
5173140.00
5250780.00
5263004.00
5283335.00
5300227.00
5320474.00
5326808.00
5344603.00
5371643.00
5377025.00
5414731.00
5420282.00
5421462.00
5442331.00
5442342.00
5453748.00
5467657.00
5531447.00
5555250.00
5574882.00
5593205.00
5651984.00
5655908.00
5708961.00
5763835.00
5783372.00
5789333.00
5791604.00
5818857.00
5851251.00
5868698.00
5915751.00
5932571.00
5949615.00
6034500.00
6073034.00
6094991.00
6106257.00
6113836.00
6138150.00
6233854.00
6238491.00
6260900.00
6275532.00
6280084.00
6289245.00
6358919.00
6368902.00
6372709.00
6375276.00
6419714.00
6457208.00
6474946.00
6505462.00
6511793.00
6549408.00
6567350.00
6571125.00
6574393.00
6590388.00
6603352.00
6613914.00
6625338.00
6638987.00
6712300.00
6716761.00
6788700.00
6790128.00
6790996.00
6833102.00
6839489.00
6848759.00
6865587.00
6891913.00
6973197.00
6989430.00
7059175.00
7087330.00
7105710.00
7157413.00
7213986.00
7222579.00
7229933.00
7248117.00
7269654.00
7280587.00
7310147.00
7318985.00
7338018.00
7352098.00
7370416.00
7376727.00
7388308.00
7418395.00
7420737.00
7425413.00
7438500.00
7439941.00
7484967.00
7508188.00
7528348.00
7544621.00
7586161.00
7660199.00
7663150.00
7664964.00
7713630.00
7745256.00
7788000.00
7789430.00
7848557.00
7863315.00
7915050.00
7923700.00
7984899.00
8041717.00
8061952.00
8068622.00
8092028.00
8221400.00
8235003.00
8273010.00
8281340.00
8282223.00
8336309.00
8339058.00
8340000.00
8347055.00
8360300.00
8394367.00
8423291.00
8482107.00
8504839.00
8507468.00
8540055.00
8599199.00
8602993.00
8603612.00
8607565.00
8627610.00
8681279.00
8712943.00
8756608.00
8757068.00
8783700.00
8844661.00
8852567.00
8889158.00
8931368.00
8951678.00
8989308.00
8989830.00
8994286.00
8996971.00
9015255.00
9020486.00
9048432.00
9060444.00
9072947.00
9116348.00
9138370.00
9149453.00
9255498.00
9272013.00
9297240.00
9317524.00
9374000.00
9459143.00
9475195.00
9534762.00
9573011.00
9657386.00
9758117.00
9793091.00
9794767.00
9799876.00
9827500.00
9836200.00
9925261.00
9953705.00
10021060.00
10076563.00
10095966.00
10195733.00
10196828.00
10302679.00
10312785.00
10313967.00
10354492.00
10434500.00
10472200.00
10473781.00
10504606.00
10538534.00
10646082.00
10676250.00
10694349.00
10705280.00
10722090.00
10817079.00
10898028.00
10911778.00
11034308.00
11097296.00
11201620.00
11236801.00
11290042.00
11300553.00
11300728.00
11316375.00
11357680.00
11376333.00
11407905.00
11422788.00
11491411.00
11497421.00
11541522.00
11570915.00
11616010.00
11632698.00
11643057.00
11712720.00
11738771.00
11758333.00
11758947.00
11778359.00
11803426.00
11902261.00
11942285.00
12078934.00
12200988.00
12304925.00
12351879.00
12430369.00
12441907.00
12499200.00
12502108.00
12564800.00
12585057.00
12594387.00
12688324.00
12692289.00
12720650.00
12750868.00
12761933.00
12770118.00
12771597.00
12813658.00
12901500.00
12975294.00
13046928.00
13305079.00
13323801.00
13390201.00
13506051.00
13507776.00
13547555.00
13553440.00
13596157.00
13685251.00
13686342.00
13689627.00
13850838.00
13921980.00
14000411.00
14035869.00
14101694.00
14157736.00
14180350.00
14245458.00
14391510.00
14416472.00
14437814.00
14476075.00
14608193.00
14673648.00
14787963.00
14955932.00
14962808.00
14968970.00
15014292.00
15044248.00
15134800.00
15150668.00
15171000.00
15231576.00
15234774.00
15313744.00
15392374.00
15422364.00
15434073.00
15444083.00
15498024.00
15504619.00
15507592.00
15552691.00
15575265.00
15630381.00
15712200.00
15728699.00
15748611.00
15792419.00
15872819.00
15884445.00
15899321.00
16014950.00
16033986.00
16124100.00
16174735.00
16182202.00
16236052.00
16355162.00
16370975.00
16388606.00
16424704.00
16537187.00
16678916.00
16683000.00
16770108.00
16770188.00
16803906.00
16815525.00
16840740.00
16848619.00
16870760.00
16930850.00
16931293.00
16931756.00
16953125.00
16959358.00
17127625.00
17184395.00
17215666.00
17313722.00
17327222.00
17363102.00
17407950.00
17413980.00
17421792.00
17493478.00
17501270.00
17504041.00
17559451.00
17647917.00
17723200.00
17769896.00
17810000.00
17997110.00
18015113.00
18122244.00
18179519.00
18208482.00
18226828.00
18248666.00
18248960.00
18289234.00
18364119.00
18383806.00
18441844.00
18483173.00
18489497.00
18563625.00
18633844.00
18859119.00
18863574.00
18947739.00
18952439.00
19009844.00
19021749.00
19097551.00
19099623.00
19148679.00
19174259.00
19317410.00
19413158.00
19470756.00
19475112.00
19555784.00
19601860.00
19637744.00
19638345.00
19664247.00
19715627.00
19830005.00
19912008.00
19925950.00
19938469.00
19950000.00
19953771.00
19955679.00
20051334.00
20114848.00
20127134.00
20183333.00
20214688.00
20328663.00
20506104.00
20506856.00
20522690.00
20650170.00
20725004.00
20746605.00
20769034.00
20929230.00
20931978.00
20970108.00
21069126.00
21113233.00
21294886.00
21391873.00
21450000.00
21473202.00
21618800.00
21643293.00
21831817.00
21842468.00
21862260.00
21896165.00
21980620.00
22096529.00
22149240.00
22266311.00
22267233.00
22287512.00
22307910.00
22413279.00
22428062.00
22436748.00
22462619.00
22540170.00
22583438.00
22672056.00
22712059.00
22723941.00
22779900.00
22826781.00
22880000.00
22892953.00
22903624.00
23173520.00
23339168.00
23370083.00
23390346.00
23464068.00
23527215.00
23567166.00
23585164.00
23597950.00
23613208.00
23643732.00
23755199.00
23838763.00
23878643.00
23887841.00
23893023.00
24059353.00
24111882.00
24115822.00
24157885.00
24178844.00
24328800.00
24338942.00
24436416.00
24547512.00
24566728.00
24674000.00
24690114.00
24730345.00
24775821.00
24802786.00
24828017.00
24953569.00
25172408.00
25175030.00
25357663.00
25387000.00
25394508.00
25628666.00
25792192.00
25995600.00
26009864.00
26126480.00
26158843.00
26247658.00
26409185.00
26428023.00
26486129.00
26540187.00
26621524.00
26621954.00
26719046.00
26770618.00
26948940.00
26987942.00
27006523.00
27069077.00
27163545.00
27236157.00
27344555.00
27426526.00
27431821.00
27434043.00
27527971.00
27596896.00
27708057.00
27748149.00
27809288.00
27844937.00
28023271.00
28085631.00
28128483.00
28274000.00
28311474.00
28392214.00
28486608.00
28556100.00
28600000.00
28614574.00
28743414.00
28760746.00
28800395.00
28817280.00
28875054.00
28898353.00
28905638.00
28956050.00
28985607.00
29059299.00
29131250.00
29269438.00
29312489.00
29386998.00
29408418.00
29480365.00
29553901.00
29565090.00
29602669.00
29625650.00
29726851.00
29744887.00
29792144.00
29995296.00
30007236.00
30064848.00
30222803.00
30238759.00
30266073.00
30272548.00
30305854.00
30400124.00
30452876.00
30485896.00
30531962.00
30624736.00
30750000.00
30867322.00
30920392.00
31061558.00
31068189.00
31081793.00
31172396.00
31295144.00
31629521.00
31678579.00
31760703.00
31800000.00
31811684.00
31888636.00
32000000.00
32055873.00
32179108.00
32218709.00
32404326.00
32409523.00
32462811.00
32641821.00
32679284.00
32995328.00
33047644.00
33048914.00
33078600.00
33136710.00
33201110.00
33237519.00
33309176.00
33338227.00
33821710.00
33930559.00
34081820.00
34159997.00
34166810.00
34240607.00
34365878.00
34371229.00
34389356.00
34511211.00
34587293.00
34691875.00
34697946.00
34835193.00
34939168.00
34965337.00
35051940.00
35091623.00
35093084.00
35579209.00
35678218.00
35693125.00
35805835.00
35823846.00
35936330.00
36046662.00
36089169.00
36109127.00
36169027.00
36181498.00
36244250.00
36445850.00
36499515.00
36600123.00
36738958.00
36827473.00
36901185.00
37147662.00
37209297.00
37319593.00
37467430.00
37502453.00
37731600.00
38039033.00
38062500.00
38062901.00
38133918.00
38373871.00
38464275.00
38495484.00
38512286.00
38919754.00
39015600.00
39166647.00
39211041.00
39394478.00
39417188.00
39574113.00
39634760.00
39816139.00
40294982.00
40367201.00
40387949.00
40451980.00
40514056.00
40551524.00
40581943.00
40950000.00
40978898.00
41115933.00
41135373.00
41261865.00
41359592.00
41442026.00
41606019.00
41767632.00
42068043.00
42071879.00
42273839.00
42359233.00
42540146.00
42668322.00
42689400.00
42732214.00
42789808.00
42839034.00
42910140.00
43261807.00
43300072.00
43349941.00
43464563.00
43469353.00
43830596.00
43980063.00
44083107.00
44311977.00
44337752.00
44461232.00
44486991.00
44820887.00
44894784.00
44906177.00
45135033.00
45151993.00
45155027.00
45155872.00
45265592.00
45396969.00
45427984.00
45449534.00
45498476.00
45531683.00
45586346.00
45617122.00
45725377.00
45860440.00
45966148.00
45968261.00
45993896.00
46021338.00
46057502.00
46431681.00
46439499.00
46472684.00
46545000.00
46603348.00
46632338.00
46655172.00
46656063.00
46670129.00
46764593.00
46771835.00
46785842.00
47070237.00
47086605.00
47178346.00
47308998.00
47357910.00
47459285.00
47600000.00
47610811.00
47631553.00
47668370.00
47798559.00
48056233.00
48067049.00
48073735.00
48098806.00
48137635.00
48679767.00
48746434.00
48764453.00
48819600.00
48961044.00
49290164.00
49344651.00
49496845.00
49660006.00
49687272.00
49808657.00
50181938.00
50297640.00
50616855.00
50626727.00
50731885.00
50806396.00
50825285.00
50868862.00
50969550.00
51152000.00
51193444.00
51488907.00
52168938.00
52175472.00
52278551.00
52554226.00
52558910.00
52692998.00
52858037.00
53093894.00
53262350.00
53333783.00
53482825.00
53500410.00
53538723.00
53714740.00
53716166.00
53774119.00
53789829.00
53811478.00
54120320.00
54124568.00
54148732.00
54271113.00
54339433.00
54412531.00
54514107.00
54790754.00
54794451.00
54809247.00
55200940.00
55226365.00
55234040.00
55257848.00
55451421.00
55493560.00
55511220.00
55535000.00
56637122.00
56702085.00
56743623.00
56745386.00
56935227.00
57032912.00
57384634.00
57699273.00
57732993.00
57781073.00
58239745.00
58281970.00
58299190.00
58334437.00
58337549.00
58346260.00
58423385.00
58426113.00
58548167.00
58858218.00
58930689.00
58991305.00
59061691.00
59089884.00
59160000.00
59210800.00
59280910.00
59408631.00
59613697.00
59761358.00
59788305.00
59913040.00
60084919.00
60477734.00
60635315.00
60635557.00
60666683.00
60927074.00
61331807.00
61671090.00
61835052.00
61902080.00
61980096.00
62003120.00
62061620.00
62227210.00
62630956.00
62679035.00
62963249.00
62992489.00
63034323.00
63247652.00
63487882.00
63668823.00
63734455.00
63827673.00
63969624.00
64319778.00
64349815.00
64542510.00
64623600.00
64673919.00
64850997.00
64874801.00
64944342.00
65248300.00
65535000.00
65621037.00
65634663.00
66349577.00
66533609.00
66540746.00
66592556.00
67234535.00
67569866.00
67679503.00
67948466.00
68251614.00
68391508.00
68555965.00
68604274.00
68651045.00
68888870.00
69072887.00
69203484.00
69524541.00
69753584.00
70265180.00
70301966.00
70330113.00
70462068.00
70467172.00
71035800.00
71085799.00
71179096.00
71208673.00
71476537.00
71556146.00
71756572.00
71889952.00
72107200.00
72189803.00
72375153.00
72378797.00
72426606.00
72521538.00
72596115.00
72743110.00
73472104.00
73505544.00
73714023.00
73940611.00
74223176.00
74237910.00
74407721.00
74635708.00
74798318.00
74883000.00
75016583.00
75111288.00
75600805.00
75621806.00
76046817.00
76091400.00
76187838.00
76224478.00
76229367.00
76262011.00
76845392.00
76883236.00
76919132.00
76922841.00
77068049.00
77083874.00
77121560.00
77240307.00
77354141.00
77383695.00
77662631.00
78157526.00
78496643.00
78829253.00
78890111.00
79132282.00
79225631.00
79423941.00
79449056.00
79690580.00
79756000.00
79853838.00
79876426.00
79889283.00
80337475.00
80535000.00
80950964.00
81181393.00
81332190.00
82139553.00
82171823.00
82177742.00
82396325.00
82576560.00
82723089.00
83055723.00
83513787.00
83621302.00
83894360.00
84099785.00
84111804.00
84224234.00
84304422.00
84639184.00
85123084.00
85437953.00
85909370.00
86116868.00
86650734.00
86702289.00
86822633.00
87095222.00
87284834.00
87336540.00
87433708.00
87438011.00
87623568.00
87706918.00
87737731.00
87860530.00
87871997.00
88072372.00
88074642.00
88256250.00
88272339.00
88694320.00
89556003.00
90034858.00
90056056.00
90168455.00
90209455.00
90422454.00
90455537.00
90493940.00
90496633.00
90513840.00
90838582.00
91010575.00
91171321.00
91225270.00
91287263.00
92107048.00
92256511.00
92301437.00
92354635.00
92573243.00
92717801.00
92869541.00
92941686.00
93339569.00
93851481.00
93958174.00
94282979.00
94358718.00
94475832.00
94531327.00
94547215.00
95164695.00
95330739.00
95350800.00
95610115.00
95619203.00
95625000.00
95845000.00
95871750.00
96323379.00
96533410.00
96630016.00
96748966.00
96804413.00
96867490.00
96868739.00
97011458.00
97454500.00
97508892.00
97690173.00
98278013.00
98365889.00
98397241.00
98409863.00
98898755.00
98952000.00
99107068.00
99793796.00
99878126.00
100216561.00
100438103.00
100475896.00
100491227.00
100536611.00
101040539.00
101203746.00
101648065.00
101915390.00
101992436.00
102282929.00
102717290.00
103085461.00
103342036.00
103522068.00
103767697.00
103817712.00
103819038.00
104468504.00
104909828.00
104924772.00
105459687.00
105970288.00
106045622.00
106584990.00
106715336.00
106746875.00
106855384.00
107217160.00
107258348.00
107348463.00
107361250.00
107598700.00
107656354.00
107720547.00
107804581.00
107920303.00
108056862.00
108428152.00
108604897.00
108648787.00
109268056.00
109291153.00
109328880.00
109334150.00
110392783.00
110631939.00
110980654.00
111116812.00
111147589.00
111510084.00
111594620.00
111697834.00
112032597.00
112153401.00
112377861.00
112638789.00
113558601.00
113692500.00
113859859.00
114639797.00
114830934.00
115085190.00
115222059.00
115802022.00
116040910.00
116203802.00
116595441.00
116760763.00
117280265.00
117625323.00
117854677.00
118297670.00
118636260.00
118872286.00
119210631.00
119370740.00
119450082.00
119622979.00
119880351.00
119960334.00
120092107.00
120422500.00
120517601.00
121312964.00
121326758.00
121454953.00
121607510.00
121648379.00
121683388.00
121788560.00
121895747.00
122164590.00
122169540.00
122996668.00
124077592.00
124197351.00
124203167.00
125276818.00
125281400.00
125635311.00
125942103.00
126293390.00
126365658.00
127444589.00
127598266.00
127785181.00
127981081.00
127986553.00
128022456.00
128202309.00
128369170.00
128502813.00
128562500.00
128752161.00
128850330.00
128878846.00
128962298.00
129130743.00
130235231.00
131081814.00
131207639.00
131375000.00
131688638.00
132572000.00
132580732.00
132698914.00
133149919.00
133190272.00
133256431.00
133298157.00
133609260.00
133618339.00
133650388.00
133955951.00
134087500.00
134123054.00
134317268.00
134675802.00
134785504.00
135278671.00
135609677.00
135804609.00
136018138.00
136098444.00
136398374.00
136824896.00
137186698.00
137361824.00
137764696.00
138158900.00
138559722.00
139158271.00
139166126.00
139254159.00
140384201.00
140768705.00
141064797.00
141416899.00
141842134.00
142342651.00
142376693.00
142498569.00
142615143.00
142902346.00
143012148.00
143296783.00
143335569.00
143563860.00
143583574.00
143931692.00
144264016.00
144527389.00
144752353.00
144826963.00
145321975.00
145344654.00
145693822.00
146011477.00
146358004.00
147314176.00
147811782.00
147853843.00
148034039.00
148316881.00
148869996.00
148955037.00
149155146.00
149618779.00
150213473.00
150590977.00
150813195.00
151347214.00
151633721.00
151836864.00
152263620.00
152388932.00
153214174.00
153789969.00
154046143.00
154323781.00
155095337.00
155178848.00
155366239.00
155400933.00
156049962.00
156124861.00
156574245.00
156702725.00
157164478.00
157382339.00
157521732.00
157876140.00
158368652.00
158390795.00
158548024.00
158740327.00
158910206.00
159030313.00
159316213.00
159879454.00
160307085.00
160841771.00
160967027.00
161144273.00
161228826.00
161296282.00
161376710.00
161667010.00
161712022.00
161724020.00
161949300.00
162710355.00
163237539.00
164972686.00
165122028.00
165187955.00
165196596.00
165546451.00
165742037.00
166018565.00
166257123.00
166458203.00
166642422.00
166790612.00
167744006.00
167800060.00
168498552.00
168546775.00
169276116.00
169650000.00
170122506.00
170691815.00
170776385.00
170811960.00
170923413.00
170986436.00
171402075.00
172284470.00
172361442.00
172975171.00
173296751.00
173671384.00
173686948.00
174341990.00
174822366.00
175005808.00
175134165.00
175578757.00
175597021.00
176069561.00
177368492.00
177449037.00
177505537.00
177642476.00
177798533.00
177914159.00
178179911.00
178306160.00
178386775.00
179223859.00
179926853.00
180138843.00
180411280.00
180997830.00
181350207.00
181496111.00
182086942.00
183207140.00
183293877.00
183618654.00
183770971.00
184048167.00
184152016.00
185009105.00
185150000.00
185392701.00
185493585.00
185551446.00
185594914.00
185747004.00
185835339.00
185879503.00
185992223.00
186885403.00
187328837.00
187898084.00
187954359.00
188027415.00
188114752.00
188152109.00
188350654.00
188867244.00
189060552.00
189213182.00
189329953.00
189981000.00
190086615.00
190237703.00
190280358.00
190952563.00
191923150.00
192349080.00
192490981.00
192997288.00
193224698.00
193586973.00
193896585.00
194532793.00
194753211.00
195192282.00
195363670.00
195691677.00
197242804.00
197463795.00
198235043.00
198789463.00
198803188.00
199795382.00
200239797.00
200520979.00
202053517.00
202162441.00
202457032.00
203221841.00
205007865.00
205211744.00
205587610.00
205618616.00
205633921.00
206215476.00
207143404.00
207220410.00
207932041.00
208768865.00
209252784.00
209429070.00
209598499.00
209812341.00
209820856.00
210214799.00
211432607.00
212190800.00
212382251.00
212637406.00
212975980.00
213788056.00
214203484.00
215273075.00
215452766.00
215487869.00
215727911.00
215777050.00
216450970.00
216533896.00
216736498.00
217064590.00
217191470.00
217564139.00
217794112.00
217796799.00
218039890.00
218843852.00
219141105.00
219208434.00
219786324.00
220427649.00
220595861.00
220937441.00
221066335.00
221511241.00
222341713.00
222908960.00
223391882.00
223652649.00
223891345.00
224444442.00
224509200.00
225521291.00
225952041.00
225973267.00
226032377.00
226429489.00
226896125.00
227498998.00
227543055.00
227596593.00
227784834.00
227946513.00
227976419.00
228014693.00
228536798.00
229290001.00
229636529.00
229767692.00
230520108.00
231839785.00
231901478.00
231942030.00
232245878.00
232483018.00
233427464.00
234082500.00
235306914.00
235546444.00
236796465.00
237783522.00
239106897.00
240166322.00
241050754.00
241204980.00
242391823.00
243216976.00
243520357.00
243718229.00
243779768.00
244590529.00
245705659.00
245751800.00
245865489.00
246425763.00
248343680.00
249710184.00
251297778.00
251350970.00
251548874.00
252949052.00
253286116.00
253546400.00
254309000.00
254564790.00
254678354.00
254957462.00
255037944.00
255560499.00
256333275.00
256357953.00
256905652.00
257062278.00
257168021.00
257396197.00
257778777.00
257815102.00
257827075.00
258147619.00
258221982.00
258654474.00
259087339.00
259252205.00
261372555.00
261659409.00
261672516.00
261680408.00
262431319.00
263566522.00
264644988.00
264708235.00
265244917.00
266255289.00
266598666.00
266926571.00
266996372.00
267416140.00
268792020.00
269743307.00
270604589.00
270873332.00
271191042.00
271353110.00
271375000.00
272579798.00
272792994.00
273169959.00
273602682.00
274045880.00
274238106.00
274298127.00
274730462.00
275164029.00
276582848.00
277458726.00
277762659.00
278489220.00
278862091.00
278964863.00
278982136.00
279243100.00
279522360.00
279535381.00
279784816.00
280990185.00
281126263.00
282949220.00
282958130.00
283434625.00
283820042.00
284986885.00
285355273.00
285492000.00
286028270.00
286521219.00
286752085.00
286889446.00
288034570.00
288800235.00
288847354.00
289247623.00
289316369.00
289609030.00
289705041.00
290234411.00
291098814.00
292155462.00
292529699.00
292623676.00
293187208.00
294098040.00
294326546.00
294584766.00
296206101.00
296284973.00
296559380.00
296715000.00
297121112.00
297624061.00
297923426.00
298662571.00
299135819.00
299794979.00
300577500.00
300930208.00
301329814.00
301386665.00
301523056.00
301799819.00
301984000.00
302673410.00
302930544.00
303387231.00
303489992.00
303808225.00
304266503.00
304640602.00
304782522.00
304893942.00
305179280.00
305895102.00
305911479.00
306608495.00
306922795.00
307158023.00
307813138.00
308068570.00
308471688.00
308826164.00
309011213.00
309375724.00
309659206.00
309773406.00
310034448.00
311273445.00
311794494.00
312294327.00
312615707.00
312756609.00
312842177.00
313084898.00
313169653.00
313242877.00
313779406.00
313992933.00
314040557.00
314051418.00
314557549.00
315275927.00
315318810.00
316248738.00
316481270.00
317028743.00
318240383.00
320862618.00
320898836.00
323090269.00
323147092.00
323577019.00
325070355.00
327375387.00
327559451.00
327832655.00
328846028.00
329748540.00
329805953.00
330068918.00
330239601.00
330441344.00
331867217.00
332568679.00
333743200.00
333915234.00
334720547.00
334860584.00
335133173.00
335292936.00
336295998.00
336635608.00
337963681.00
338948311.00
339958280.00
340266839.00
341462275.00
343356423.00
343695142.00
344621583.00
344916000.00
344987085.00
345048599.00
345290100.00
345528118.00
346422463.00
346567713.00
348849075.00
349211144.00
349458418.00
349506645.00
349898407.00
350173868.00
350432575.00
350536254.00
350876214.00
350991595.00
351146356.00
352275913.00
352388978.00
352516524.00
355024477.00
356252170.00
356533970.00
356841472.00
357192631.00
357572496.00
358845190.00
359213545.00
359560255.00
360492399.00
361027646.00
361152543.00
362060634.00
362995975.00
363955403.00
364110000.00
364150184.00
364907891.00
365394755.00
365473111.00
365576753.00
366533575.00
367420107.00
367485055.00
368471550.00
371836209.00
372013684.00
372329274.00
372706938.00
373768637.00
374061847.00
374986774.00
377695344.00
378440767.00
380588431.00
381008616.00
381045498.00
385293415.00
385294238.00
385303051.00
386587208.00
387056028.00
389855540.00
390699782.00
390839917.00
391039378.00
391301676.00
391967422.00
396207902.00
396469357.00
397564968.00
399831149.00
401631186.00
401951090.00
403276431.00
403356384.00
404832643.00
404868117.00
405282378.00
406007605.00
406604933.00
406835047.00
407122813.00
407468722.00
407830025.00
407924282.00
407998848.00
408270842.00
408367146.00
408483096.00
408692221.00
409244565.00
409427088.00
409737500.00
409899857.00
410324274.00
412538879.00
413245392.00
413359801.00
413486827.00
415762065.00
417426408.00
417788098.00
417980958.00
418389247.00
418631887.00
419582011.00
420408450.00
420460635.00
422235855.00
422857912.00
423283654.00
425040374.00
425096709.00
425820125.00
428551497.00
429768586.00
430459228.00
430647785.00
432193011.00
433242541.00
433486583.00
434838957.00
434911502.00
436357563.00
437901576.00
439151376.00
440193567.00
443156645.00
443216585.00
443582970.00
444116180.00
444305378.00
444760715.00
446496938.00
446502608.00
448139676.00
448828797.00
449678527.00
449859975.00
449906410.00
449948594.00
450244884.00
452792365.00
452851454.00
453428542.00
454847742.00
456927749.00
457085657.00
457847700.00
458103808.00
458267417.00
458952035.00
460404750.00
462530209.00
462743755.00
463571256.00
463771560.00
466860688.00
469389723.00
470522393.00
473958811.00
474703734.00
477099365.00
477156604.00
477522422.00
477686444.00
478133344.00
478606860.00
478774108.00
480639072.00
481941878.00
483091845.00
483891507.00
484561562.00
485616454.00
488384587.00
488535972.00
490759906.00
490999118.00
493611000.00
494741375.00
495673802.00
496575438.00
497893382.00
498037394.00
498547593.00
499249845.00
499537437.00
502597967.00
503217321.00
503893508.00
503938723.00
504775291.00
505550871.00
506280059.00
506371811.00
506676378.00
506855000.00
508608065.00
508992000.00
509941595.00
510566147.00
511835006.00
513052703.00
513298951.00
513467845.00
516364778.00
517535675.00
517584777.00
519653783.00
520689834.00
521501969.00
521921048.00
522074891.00
522307947.00
523166909.00
523841581.00
524048306.00
525052097.00
525776175.00
526346019.00
526942322.00
527728253.00
528349250.00
532511191.00
532951399.00
533414160.00
536273297.00
536749244.00
537231265.00
537758657.00
540033367.00
540208203.00
540578618.00
540834607.00
542249817.00
543105702.00
543746605.00
543811336.00
544464472.00
544615170.00
544714025.00
544835386.00
545268537.00
547032760.00
547729700.00
550630325.00
551934022.00
552956361.00
553870447.00
554993710.00
555363877.00
555465817.00
556455016.00
556678276.00
556793185.00
561096709.00
561751973.00
563218229.00
563244958.00
564874180.00
565295829.00
565691675.00
567393582.00
571194978.00
572585102.00
575566409.00
576635516.00
578034392.00
578102067.00
578179915.00
581565000.00
581760099.00
582797991.00
583347482.00
583717054.00
584190718.00
586105553.00
588047802.00
590163856.00
590684120.00
591423661.00
591747706.00
592933027.00
593787939.00
595414440.00
596996397.00
597400068.00
598074731.00
598546503.00
599412142.00
599714944.00
603010935.00
603133857.00
603200152.00
603339114.00
603695094.00
604344952.00
605100319.00
606298710.00
611400026.00
614575124.00
617428270.00
617880711.00
619627024.00
620064965.00
621929647.00
623007319.00
623524204.00
624810692.00
625657225.00
628165398.00
628366132.00
630405284.00
630556075.00
632019037.00
632134600.00
633790670.00
636170579.00
639750260.00
641162119.00
641524384.00
641532442.00
643008175.00
643035312.00
643905744.00
644007721.00
645274466.00
645647929.00
646743854.00
647859625.00
651934030.00
651951413.00
654269972.00
656425006.00
658297269.00
658376226.00
660223064.00
660462559.00
661007141.00
663220898.00
663511359.00
664991816.00
665266809.00
666453558.00
670263776.00
672171241.00
672528699.00
672698439.00
672858307.00
673442818.00
673561624.00
678460183.00
679352826.00
679940915.00
681972480.00
682388643.00
682831202.00
683319933.00
683776988.00
686038429.00
686438614.00
686733687.00
688946457.00
689178790.00
690051800.00
690662686.00
690954474.00
694264366.00
695616235.00
696105630.00
696517528.00
698903993.00
699722007.00
699824529.00
701664466.00
701830558.00
701936550.00
705992476.00
709155503.00
709196071.00
709585962.00
713646568.00
714444515.00
720111743.00
721468919.00
722748042.00
723027111.00
723832200.00
725507956.00
727553490.00
728399898.00
728888333.00
729359303.00
730303258.00
733832433.00
735570139.00
736511708.00
739287416.00
741974066.00
743110173.00
744106188.00
744384053.00
749343256.00
749355319.00
749644076.00
751555347.00
752072460.00
752715983.00
752919300.00
755191704.00
756927500.00
759104731.00
759241209.00
759606107.00
760133240.00
763333527.00
764335769.00
772555342.00
774146181.00
775196782.00
776029872.00
777183183.00
777698445.00
778272298.00
779143631.00
779913101.00
781454657.00
784407615.00
784568208.00
785011737.00
787178697.00
788429812.00
789608655.00
790115079.00
790586413.00
793628789.00
797602101.00
799438270.00
804293259.00
805688100.00
806045490.00
806641665.00
807020525.00
807293739.00
808062180.00
810714600.00
810805016.00
814697467.00
816155368.00
817869558.00
818234066.00
819262424.00
825653941.00
827893748.00
827995376.00
828594764.00
829191591.00
831684761.00
832462938.00
839356140.00
839971986.00
840035569.00
843131090.00
846263656.00
846623000.00
847244619.00
847898741.00
847907747.00
849727427.00
852123031.00
856443335.00
856785050.00
858343991.00
858911287.00
859053130.00
860349241.00
861223816.00
862091930.00
864258898.00
864897641.00
869003657.00
871303180.00
873083271.00
873098607.00
873407682.00
875761648.00
876818230.00
880005214.00
880806058.00
884284865.00
884492000.00
886188332.00
888035549.00
888154897.00
888504439.00
891963852.00
893295656.00
894846592.00
895615634.00
907432572.00
908044508.00
908175309.00
910286463.00
911253002.00
911609330.00
913512872.00
916832351.00
920074847.00
920592915.00
932408697.00
933905961.00
933910850.00
935227475.00
935582526.00
936638881.00
939651454.00
941919843.00
942848211.00
945241338.00
945570763.00
946402510.00
947719633.00
951128592.00
953104857.00
954055080.00
962088478.00
964911993.00
965924085.00
966557378.00
971490784.00
975342911.00
977415717.00
979511307.00
980829014.00
983045470.00
989770049.00
993382600.00
998743049.00
1000401543.00
1002794544.00
1006008489.00
1009633455.00
1012066008.00
1013899440.00
1017459064.00
1018783812.00
1020312128.00
1022359018.00
1023741110.00
1025064227.00
1027153223.00
1029830736.00
1034875696.00
1034944421.00
1037155156.00
1041353744.00
1042562834.00
1045769002.00
1046004386.00
1049499519.00
1052195429.00
1052378964.00
1052456382.00
1052746773.00
1053020364.00
1053538457.00
1056430943.00
1069794080.00
1070567650.00
1070620324.00
1071899003.00
1071978235.00
1073433626.00
1074580609.00
1079265477.00
1079555642.00
1080911543.00
1086285376.00
1089449175.00
1089572808.00
1091567510.00
1093497753.00
1094740918.00
1098091338.00
1100981788.00
1102914063.00
1105319554.00
1108437363.00
1111037625.00
1111292416.00
1111618011.00
1115588000.00
1116137771.00
1121077527.00
1125043442.00
1127137245.00
1130901024.00
1131010823.00
1136038899.00
1137306132.00
1141381510.00
1142403042.00
1143903179.00
1145516364.00
1146572947.00
1149746693.00
1153548234.00
1155911476.00
1157011724.00
1159342587.00
1167266473.00
1171741555.00
1172204839.00
1176562555.00
1178503127.00
1185864526.00
1187277734.00
1187774170.00
1189414641.00
1190140365.00
1191729943.00
1195813921.00
1197912509.00
1200128911.00
1200675318.00
1212550105.00
1214708324.00
1216551162.00
1216793068.00
1220033216.00
1221962000.00
1226643874.00
1229038242.00
1232000175.00
1232892550.00
1238538614.00
1241621059.00
1242582035.00
1243137997.00
1243428516.00
1246339895.00
1253889466.00
1257507274.00
1257553286.00
1262758757.00
1263556690.00
1264179388.00
1266546659.00
1268062034.00
1272648926.00
1273091701.00
1280712397.00
1286877105.00
1287248826.00
1290433280.00
1292399709.00
1293342685.00
1294495350.00
1295116746.00
1295683889.00
1302154000.00
1302576298.00
1303245979.00
1305511045.00
1306088000.00
1308203444.00
1310907312.00
1312584685.00
1313231469.00
1314673598.00
1315900501.00
1319439110.00
1319445022.00
1321956999.00
1329765187.00
1330621277.00
1331909139.00
1335385406.00
1335858421.00
1339683156.00
1342761309.00
1342943840.00
1343033363.00
1346630415.00
1347978562.00
1355806437.00
1368234764.00
1369258326.00
1371083221.00
1372887698.00
1378982610.00
1384203387.00
1388687721.00
1389583487.00
1390599173.00
1397663314.00
1397792635.00
1405279883.00
1406409724.00
1406773549.00
1414170756.00
1421503212.00
1426345344.00
1428731746.00
1431964232.00
1434799608.00
1437571854.00
1440078534.00
1442818697.00
1443357084.00
1445841522.00
1449019485.00
1449900083.00
1450529441.00
1458123239.00
1459151561.00
1462606751.00
1463371106.00
1467616557.00
1469033917.00
1474467477.00
1477020000.00
1479124964.00
1482160155.00
1484426488.00
1484519108.00
1487132100.00
1487152085.00
1490753625.00
1498768428.00
1498958968.00
1502098232.00
1504326440.00
1506425287.00
1511134079.00
1527700300.00
1530762695.00
1537310969.00
1549308681.00
1553903707.00
1556853090.00
1559317253.00
1561711333.00
1567716134.00
1579530040.00
1580129630.00
1583768860.00
1585416065.00
1593127145.00
1600709414.00
1602151343.00
1603871451.00
1610059133.00
1613564966.00
1617599463.00
1619315462.00
1621119068.00
1623021342.00
1630116584.00
1635175239.00
1636516886.00
1642200000.00
1646490727.00
1649900130.00
1657968553.00
1665224108.00
1668289398.00
1672920427.00
1678395758.00
1687219290.00
1688447000.00
1691577433.00
1692536116.00
1698487082.00
1700640285.00
1705450443.00
1709122031.00
1709354706.00
1714612085.00
1718203500.00
1719817196.00
1721788200.00
1724632709.00
1730416634.00
1730505024.00
1738007185.00
1739202135.00
1739961671.00
1744754304.00
1744959685.00
1745058758.00
1750213540.00
1753310785.00
1763729364.00
1772699242.00
1777394343.00
1789171087.00
1793526615.00
1793970349.00
1803462764.00
1807612439.00
1808552024.00
1818338174.00
1820705759.00
1821487499.00
1822194908.00
1824503060.00
1826351357.00
1826593070.00
1831892659.00
1833280679.00
1834675151.00
1849443044.00
1849607798.00
1853169842.00
1854836208.00
1858964832.00
1859838551.00
1864335243.00
1869859358.00
1870244013.00
1872970753.00
1873375847.00
1876224489.00
1888528433.00
1895431576.00
1901235934.00
1918112531.00
1919923545.00
1923254377.00
1926581874.00
1938077981.00
1938853265.00
1939670139.00
1951802295.00
1959539697.00
1971665959.00
1974856579.00
1983151898.00
1983510182.00
1989591903.00
1999822154.00
2005286938.00
2007332047.00
2008669636.00
2013653815.00
2013812237.00
2014400124.00
2015531561.00
2016672490.00
2022727963.00
2027424951.00
2028512941.00
2031447577.00
2036465070.00
2038416764.00
2045997780.00
2049793090.00
2056144434.00
2061887654.00
2063399848.00
2063696951.00
2068417512.00
2080918176.00
2081136382.00
2097893864.00
2102583845.00
2103663536.00
2103800324.00
2109894884.00
2110722157.00
2112300604.00
2113621379.00
2124357030.00
2140895581.00
2141068041.00
2148021781.00
2152327565.00
2161271881.00
2162372307.00
2183551900.00
2184131561.00
2186947212.00
2203139138.00
2207908591.00
2209800816.00
2223745113.00
2235176444.00
2239133582.00
2247952736.00
2247980821.00
2250216487.00
2252330038.00
2252527262.00
2253556106.00
2254557640.00
2259957253.00
2265453221.00
2266147608.00
2267962948.00
2274073952.00
2275675200.00
2276912796.00
2291678176.00
2298943200.00
2300171368.00
2300500472.00
2306273545.00
2306321303.00
2307443322.00
2331474464.00
2333463516.00
2340741182.00
2340980635.00
2347364813.00
2353564464.00
2361436121.00
2370577026.00
2373973316.00
2377186461.00
2377330047.00
2377420564.00
2394557161.00
2397871856.00
2404368537.00
2409040443.00
2412787625.00
2425129140.00
2433315511.00
2433487949.00
2437227520.00
2440347673.00
2445109669.00
2451358507.00
2454610426.00
2464317361.00
2473115643.00
2481772396.00
2484283725.00
2495712680.00
2497022906.00
2503019327.00
2518048965.00
2526033208.00
2529862303.00
2530639407.00
2550267497.00
2550510220.00
2559712257.00
2560941400.00
2564746332.00
2566652622.00
2576590929.00
2578704995.00
2583099519.00
2583260205.00
2599511303.00
2604211668.00
2604908075.00
2614910766.00
2635721711.00
2640672732.00
2641181707.00
2642705228.00
2652399640.00
2665455680.00
2666217147.00
2673739091.00
2696272820.00
2720581454.00
2723953865.00
2724383552.00
2728522820.00
2730592191.00
2734630520.00
2745565408.00
2746125697.00
2747258762.00
2752357354.00
2763153252.00
2768978902.00
2799016844.00
2805226600.00
2810722033.00
2816244411.00
2818009242.00
2818144307.00
2820620645.00
2827480901.00
2837813778.00
2839357644.00
2869404460.00
2870371627.00
2895379756.00
2897338550.00
2898158697.00
2912278252.00
2928497282.00
2942736616.00
2956818600.00
2960555525.00
2975089258.00
2987496141.00
3006034239.00
3015724142.00
3018984196.00
3027390510.00
3049699213.00
3076865253.00
3081748232.00
3083891426.00
3088580340.00
3101686940.00
3118829801.00
3135136550.00
3139546810.00
3145665508.00
3149446020.00
3154136588.00
3172704159.00
3174841851.00
3194059559.00
3195366625.00
3213343988.00
3218876005.00
3224010270.00
3241271643.00
3245478763.00
3255282982.00
3258739467.00
3276379399.00
3282574579.00
3292690685.00
3300321701.00
3304345963.00
3322128169.00
3324844834.00
3343876584.00
3346259564.00
3353026271.00
3417710416.00
3417873093.00
3432044968.00
3440051611.00
3444008757.00
3460088836.00
3460862106.00
3476422105.00
3480814590.00
3486909707.00
3501481492.00
3501898978.00
3515323639.00
3515821393.00
3524317597.00
3530949938.00
3542115008.00
3569773869.00
3575042352.00
3576687012.00
3576894290.00
3593275401.00
3594184688.00
3604477279.00
3609564495.00
3620694579.00
3625837524.00
3646862474.00
3659216752.00
3662157928.00
3662420470.00
3703263352.00
3712205434.00
3717630480.00
3720271779.00
3742962325.00
3750347526.00
3782947317.00
3783165372.00
3785489623.00
3787629767.00
3792667961.00
3797688557.00
3818796262.00
3839570792.00
3858933401.00
3864415742.00
3872728056.00
3926211045.00
3953921618.00
3958080000.00
3967797727.00
3970658137.00
3972983803.00
3982137679.00
3985304730.00
3991728505.00
4012782600.00
4020682083.00
4021243546.00
4024777688.00
4031593528.00
4033809932.00
4034405763.00
4059910969.00
4062655731.00
4099390400.00
4111839094.00
4117978634.00
4126472000.00
4141637837.00
4162076206.00
4163514235.00
4164160000.00
4167459731.00
4185496000.00
4189572405.00
4208202606.00
4219781541.00
4226222560.00
4229277143.00
4256758975.00
4277481628.00
4290596554.00
4308064955.00
4310753155.00
4314454366.00
4317092168.00
4325939632.00
4327738219.00
4333740759.00
4354945996.00
4356727417.00
4358481611.00
4373267168.00
4375068811.00
4392284367.00
4418792160.00
4458349000.00
4514482459.00
4528281644.00
4559594675.00
4565842946.00
4568746817.00
4572182234.00
4581783635.00
4582399823.00
4587684621.00
4592236996.00
4606902605.00
4612497772.00
4628767987.00
4635953974.00
4646649820.00
4650902776.00
4654625900.00
4670263170.00
4676482812.00
4686425484.00
4712727059.00
4714223903.00
4716967893.00
4719116545.00
4720114764.00
4724281617.00
4735021105.00
4776843178.00
4797061972.00
4819569065.00
4877471658.00
4881066810.00
4901622919.00
4919722983.00
4949281455.00
4957712474.00
4959967616.00
4981192585.00
4981461295.00
4985132233.00
4987644512.00
5002258830.00
5084743849.00
5092983866.00
5130673331.00
5149072580.00
5179979340.00
5197509774.00
5221519885.00
5266262070.00
5283812525.00
5286094475.00
5323624711.00
5324475000.00
5341978537.00
5342249213.00
5364475530.00
5370268652.00
5393583786.00
5420205103.00
5432628948.00
5438559322.00
5462656233.00
5465246399.00
5478526114.00
5524594645.00
5529823786.00
5538994538.00
5545352719.00
5559272825.00
5576892160.00
5586599054.00
5625231096.00
5656371248.00
5669567413.00
5678295710.00
5714140952.00
5721330355.00
5729203000.00
5921896725.00
5934866600.00
5938968519.00
5947087886.00
5949592877.00
5957726249.00
5969799294.00
5983083000.00
5984853549.00
6006506477.00
6029597410.00
6072622500.00
6115831452.00
6149212954.00
6206525400.00
6217266873.00
6223796307.00
6233181614.00
6243508559.00
6268772732.00
6283671513.00
6283759784.00
6333575548.00
6334190982.00
6361264313.00
6410208305.00
6436968421.00
6452953440.00
6459994171.00
6497657195.00
6541990264.00
6547751411.00
6567505401.00
6580999380.00
6634375514.00
6657430508.00
6680927533.00
6719145180.00
6729159771.00
6753722267.00
6767029570.00
6835133018.00
6843839779.00
6848464664.00
6884071229.00
6888160483.00
6897128899.00
6940818640.00
7012544757.00
7018136187.00
7018660927.00
7039262178.00
7053267520.00
7058668659.00
7182462456.00
7206562103.00
7306713053.00
7365535908.00
7386702563.00
7458585288.00
7492491675.00
7548558095.00
7555115282.00
7566953366.00
7672079274.00
7675936670.00
7825240295.00
7828783660.00
7896091318.00
7910505600.00
7939620503.00
7963438447.00
7987240157.00
8007374246.00
8017981048.00
8022145800.00
8164448774.00
8166953243.00
8221579745.00
8232022248.00
8291024721.00
8347410153.00
8382618661.00
8399755418.00
8409933962.00
8454072496.00
8483042494.00
8517639833.00
8540025006.00
8575247984.00
8602063223.00
8750387100.00
8766953442.00
8788817839.00
8808264455.00
8825096491.00
8891639229.00
8910972082.00
8944899066.00
9077267560.00
9118199966.00
9159666815.00
9160269926.00
9258104517.00
9284815974.00
9366162911.00
9449533098.00
9455285340.00
9532730120.00
9535120863.00
9561926004.00
9607361867.00
9622338559.00
9745384058.00
9838898606.00
9878337936.00
9907603500.00
9917303372.00
10040801599.00
10258645884.00
10495199358.00
10531836542.00
10550955672.00
10564330882.00
10597193728.00
10597468537.00
10720035214.00
10734652537.00
10782174135.00
10803216233.00
10893550469.00
10900547114.00
10913175968.00
10935139616.00
10950895106.00
10973176289.00
10975829305.00
11027447736.00
11388628770.00
11438818570.00
11627932974.00
11717472650.00
11782361773.00
11835986080.00
11860233640.00
11866834083.00
11991847195.00
12029213781.00
12046594550.00
12078220943.00
12110067401.00
12117975807.00
12291125465.00
12364263815.00
12409975284.00
12490125797.00
12522888178.00
12535506425.00
12591776379.00
12606481097.00
12606909283.00
12633293298.00
12670590504.00
12744387710.00
12816096012.00
12943049555.00
13009196672.00
13165652117.00
13195454656.00
13201653288.00
13787478612.00
13847294350.00
13918157869.00
13938662237.00
13959378344.00
14010168714.00
14065473900.00
14077916946.00
14102981454.00
14151816600.00
14275052291.00
14331285191.00
14341824904.00
14347000900.00
14436506150.00
14509678650.00
14589077307.00
14591838416.00
14671850497.00
14682388361.00
14767284075.00
14837437814.00
15026683925.00
15200915801.00
15249829427.00
15322832180.00
15401917317.00
15422863343.00
15459926237.00
15691221511.00
15766580333.00
15837413389.00
15954228475.00
15978719795.00
16077501630.00
16198860601.00
16206668578.00
16270532070.00
16305267235.00
16338568712.00
16418040098.00
16571474607.00
16624947664.00
16625210091.00
16656295870.00
17140905652.00
17179319653.00
17356033607.00
17666136750.00
17698177676.00
17826521962.00
18046470591.00
18151856145.00
18176012640.00
18176910566.00
18357001914.00
18461586199.00
18481341119.00
18562298208.00
18567171697.00
18615721837.00
18620886448.00
18756565157.00
18820354679.00
18861794803.00
19079961712.00
19571975965.00
19993056033.00
20181000000.00
20481915848.00
20497645227.00
20520510137.00
20589887273.00
20728490933.00
20827678306.00
20918937448.00
20938570011.00
21081959319.00
21127843410.00
21411792118.00
21504013870.00
21717270354.00
21857591078.00
21920019885.00
21993062000.00
22083328776.00
22105570232.00
22227857242.00
22282698198.00
22329612321.00
22343807347.00
22442235553.00
22528032042.00
22636954131.00
22706131193.00
22723729258.00
22918270893.00
22996038434.00
23294884305.00
23527652902.00
23778100690.00
24025736656.00
24065820708.00
24322907469.00
24331352440.00
24881258499.00
24894975992.00
24947399681.00
25334799367.00
25339998329.00
25672372740.00
26090168102.00
27012589467.00
27522368779.00
28404557890.00
28823304266.00
28827956577.00
29040743969.00
29234213157.00
29396739287.00
29871488884.00
30348067330.00
30406920000.00
30414990038.00
30860179200.00
31091938697.00
31115080445.00
31259365721.00
31317938370.00
31463054901.00
31912814150.00
33232909695.00
34712075757.00
34827185292.00
35151822567.00
35535766648.00
36269434122.00
36323613816.00
37555174483.00
37588437151.00
37685188757.00
37947542981.00
37954265857.00
38053163599.00
38195776678.00
38414940873.00
38688629439.00
41299387425.00
41921200022.00
42102866644.00
42877297997.00
43108691869.00
44230471416.00
46306522827.00
48286536422.00
48458119832.00
49270827722.00
50145984316.00
50314202543.00
50422153966.00
50639098644.00
54306739670.00
54333366589.00
54605326363.00
55173484158.00
57762192034.00
57903263147.00
60100027516.00
61940823194.00
62515550000.00
64967709728.00
66015880000.00
66928687432.00
69562598530.00
70046004542.00
70887368185.00
73487484684.00
75269214575.00
75596590483.00
76461387830.00
78586906308.00
79952525702.00
80342433905.00
82061680412.00
83027637990.00
84172414643.00
86441146000.00
88834965549.00
89250940138.00
90813447377.00
90982571050.00
92930943363.00
100888970850.00
101465078000.00
104551741154.00
104570374000.00
107182452296.00
108949879169.00
113447580963.00
114798909000.00
115316126459.00
117537054947.00
126176444907.00
136569132838.00
140591683701.00
142442951612.00
143930631945.00
145755329205.00
150046867582.00
159132140292.00
161736446480.00
172728388350.00
176331471486.00
179204300000.00
186882508000.00
189788436371.00
197462682374.00
200584795455.00
207711174176.00
208579428181.00
234405237392.00
248338340239.00
300609602799.00
376488008487.00
408620007307.00
1086156043411.00
1268342722166.00
1568313256241.00
2345884234869.00
2396420570000.00
2412762305000.00
3152240751408.00
3483215149000.00
3662110438210.00
