Date	Open	High	Low	Close*	Adj Close**	Volume
Sep 08, 2020	3,420.50	3,447.00	3,327.50	3,335.50	3,335.50	2,732,946
Sep 09, 2020	3,315.25	3,424.00	3,295.50	3,400.25	3,400.25	2,011,132
Sep 10, 2020	3,396.00	3,424.25	3,327.25	3,340.50	3,340.50	2,332,667
Sep 11, 2020	3,345.25	3,375.00	3,308.75	3,333.75	3,333.75	1,876,451
Sep 14, 2020	3,350.00	3,402.75	3,345.50	3,382.50	3,382.50	1,378,626
Sep 15, 2020	3,379.50	3,419.00	3,376.00	3,405.25	3,405.25	874,366
Sep 16, 2020	3,405.00	3,429.75	3,384.00	3,389.50	3,389.50	571,749
Sep 17, 2020	3,392.75	3,396.50	3,320.50	3,361.50	3,361.50	384,917
Sep 18, 2020	3,355.75	3,374.25	3,341.75	3,353.60	3,353.60	2,365,554
Sep 21, 2020	3,314.50	3,326.25	3,217.75	3,275.00	3,275.00	2,507,980
Sep 22, 2020	3,271.50	3,309.50	3,256.50	3,299.25	3,299.25	1,576,319
Sep 23, 2020	3,303.75	3,319.75	3,221.00	3,231.25	3,231.25	1,979,661
Sep 24, 2020	3,228.00	3,268.25	3,198.00	3,238.00	3,238.00	2,277,010
Sep 25, 2020	3,243.50	3,296.25	3,206.50	3,287.25	3,287.25	1,697,090
Sep 28, 2020	3,291.00	3,351.25	3,287.50	3,346.00	3,346.00	1,495,804
Sep 29, 2020	3,348.75	3,363.00	3,316.50	3,333.75	3,333.75	1,326,597
Sep 30, 2020	3,330.00	3,384.00	3,291.25	3,352.00	3,352.00	2,170,601
Oct 01, 2020	3,344.75	3,388.00	3,343.25	3,367.75	3,367.75	1,517,912
Oct 02, 2020	3,367.00	3,375.50	3,300.25	3,339.25	3,339.25	2,028,921
Oct 05, 2020	3,360.00	3,400.00	3,346.50	3,393.00	3,393.00	1,077,474
Oct 06, 2020	3,392.00	3,421.75	3,330.50	3,353.25	3,353.25	1,701,062
Oct 07, 2020	3,338.00	3,416.75	3,332.25	3,406.75	3,406.75	1,400,616
Oct 08, 2020	3,406.25	3,447.25	3,405.50	3,437.50	3,437.50	1,104,986
Oct 09, 2020	3,447.25	3,480.00	3,445.25	3,473.25	3,473.25	1,185,272
Oct 12, 2020	3,467.50	3,541.00	3,464.25	3,532.75	3,532.75	1,401,063
Oct 13, 2020	3,534.00	3,535.75	3,491.50	3,504.75	3,504.75	1,617,226
Oct 14, 2020	3,502.00	3,524.00	3,472.00	3,481.00	3,481.00	1,539,718
Oct 15, 2020	3,479.25	3,486.50	3,431.50	3,475.50	3,475.50	1,650,150
Oct 16, 2020	3,478.50	3,508.50	3,461.25	3,462.25	3,462.25	1,398,947
Oct 19, 2020	3,471.00	3,496.50	3,410.75	3,422.75	3,422.75	1,645,853
Oct 20, 2020	3,436.00	3,469.75	3,418.75	3,432.25	3,432.25	1,702,183
Oct 21, 2020	3,437.00	3,458.00	3,420.50	3,432.50	3,432.50	1,681,275
Oct 22, 2020	3,430.25	3,453.00	3,402.50	3,449.25	3,449.25	1,501,259
Oct 23, 2020	3,455.75	3,462.50	3,431.50	3,451.75	3,451.75	1,216,313
Oct 26, 2020	3,445.75	3,446.25	3,356.00	3,393.50	3,393.50	1,957,780
Oct 27, 2020	3,394.25	3,410.00	3,368.25	3,383.00	3,383.00	1,566,246
Oct 28, 2020	3,369.00	3,370.25	3,260.75	3,263.50	3,263.50	2,627,180
Oct 29, 2020	3,279.00	3,333.75	3,250.25	3,302.25	3,302.25	1,965,277
Oct 30, 2020	3,268.00	3,296.25	3,225.00	3,264.75	3,264.75	2,494,925
Nov 02, 2020	3,260.00	3,323.50	3,243.25	3,300.50	3,300.50	1,849,320
Nov 03, 2020	3,304.00	3,382.75	3,301.25	3,361.50	3,361.50	1,664,690
Nov 04, 2020	3,362.75	3,480.00	3,319.00	3,435.00	3,435.00	2,813,083
Nov 05, 2020	3,448.00	3,522.50	3,428.25	3,504.75	3,504.75	1,671,417
Nov 06, 2020	3,508.75	3,519.00	3,456.75	3,500.75	3,500.75	1,640,000
Nov 09, 2020	3,522.50	3,668.00	3,515.75	3,544.00	3,544.00	2,605,322
Nov 10, 2020	3,549.50	3,562.75	3,506.50	3,541.00	3,541.00	2,160,319
Nov 11, 2020	3,546.25	3,576.75	3,531.00	3,568.00	3,568.00	1,324,983
Nov 12, 2020	3,574.50	3,574.50	3,513.00	3,532.50	3,532.50	1,685,890
Nov 13, 2020	3,537.50	3,590.00	3,518.00	3,582.00	3,582.00	1,334,530
Nov 16, 2020	3,587.00	3,637.00	3,586.50	3,623.00	3,623.00	1,303,941
Nov 17, 2020	3,625.50	3,630.00	3,584.25	3,606.75	3,606.75	1,268,206
Nov 18, 2020	3,604.50	3,623.25	3,556.50	3,565.00	3,565.00	1,325,309
Nov 19, 2020	3,562.00	3,582.75	3,542.25	3,580.00	3,580.00	1,291,117
Nov 20, 2020	3,560.00	3,582.50	3,542.75	3,554.25	3,554.25	1,189,621
Nov 23, 2020	3,546.50	3,588.00	3,545.50	3,576.00	3,576.00	1,204,848
Nov 24, 2020	3,576.00	3,640.00	3,575.25	3,632.75	3,632.75	1,288,993
Nov 25, 2020	3,635.50	3,655.00	3,615.25	3,627.25	3,627.25	1,016,343
Nov 27, 2020	3,630.25	3,642.75	3,612.75	3,636.50	3,636.50	639,268
Nov 30, 2020	3,643.75	3,652.00	3,592.25	3,623.25	3,623.25	1,712,274
Dec 01, 2020	3,631.00	3,677.50	3,626.00	3,660.50	3,660.50	1,365,328
Dec 02, 2020	3,661.25	3,672.75	3,642.25	3,667.25	3,667.25	1,106,696
Dec 03, 2020	3,671.00	3,682.00	3,655.25	3,664.50	3,664.50	1,124,033
Dec 04, 2020	3,668.25	3,700.00	3,665.50	3,698.00	3,698.00	991,860
Dec 07, 2020	3,694.75	3,705.00	3,672.25	3,690.75	3,690.75	1,078,372
Dec 08, 2020	3,682.75	3,708.00	3,664.25	3,702.00	3,702.00	1,119,000
Dec 09, 2020	3,707.75	3,714.75	3,659.50	3,672.50	3,672.50	1,792,176
Dec 10, 2020	3,669.50	3,681.25	3,644.00	3,668.50	3,668.50	1,601,203
Dec 11, 2020	3,670.00	3,674.75	3,628.25	3,661.25	3,661.25	1,538,362
Dec 14, 2020	3,677.75	3,698.00	3,642.75	3,646.50	3,646.50	1,486,250
Dec 15, 2020	3,653.00	3,695.75	3,642.75	3,694.50	3,694.50	1,029,503
Dec 16, 2020	3,697.75	3,711.50	3,687.00	3,700.75	3,700.75	584,711
Dec 17, 2020	3,704.50	3,724.75	3,699.50	3,721.25	3,721.25	292,916
Dec 18, 2020	3,721.50	3,733.25	3,707.75	3,726.25	3,726.25	1,731,161
Dec 21, 2020	3,718.25	3,724.00	3,596.00	3,685.75	3,685.75	1,837,575
Dec 22, 2020	3,685.00	3,695.00	3,663.75	3,677.25	3,677.25	1,104,998
Dec 23, 2020	3,674.25	3,701.75	3,651.00	3,681.50	3,681.50	1,021,819
Dec 24, 2020	3,685.25	3,696.00	3,678.50	3,695.00	3,695.00	369,650
Dec 28, 2020	3,682.00	3,732.25	3,676.00	3,727.50	3,727.50	760,654
Dec 29, 2020	3,731.00	3,747.75	3,714.50	3,720.00	3,720.00	992,636
Dec 30, 2020	3,724.50	3,738.25	3,716.50	3,724.25	3,724.25	769,995
Dec 31, 2020	3,725.00	3,753.00	3,715.00	3,748.75	3,748.75	993,343
Jan 04, 2021	3,748.75	3,773.25	3,652.50	3,692.25	3,692.25	2,037,616
Jan 05, 2021	3,695.00	3,730.00	3,673.25	3,718.25	3,718.25	1,414,022
Jan 06, 2021	3,717.50	3,774.75	3,685.50	3,740.50	3,740.50	2,127,155
Jan 07, 2021	3,752.50	3,804.00	3,742.00	3,795.50	3,795.50	1,302,021
Jan 08, 2021	3,797.75	3,824.50	3,775.00	3,817.50	3,817.50	1,619,438
Jan 11, 2021	3,815.50	3,820.75	3,776.50	3,792.00	3,792.00	1,292,422
Jan 12, 2021	3,794.25	3,806.75	3,768.00	3,794.50	3,794.50	1,216,214
Jan 13, 2021	3,792.00	3,813.50	3,776.50	3,803.75	3,803.75	1,049,186
Jan 14, 2021	3,808.50	3,817.75	3,786.25	3,791.25	3,791.25	1,170,812
Jan 15, 2021	3,793.00	3,797.75	3,741.50	3,762.25	3,762.25	1,781,463
Jan 19, 2021	3,750.00	3,797.00	3,740.50	3,790.50	3,790.50	1,315,580
Jan 20, 2021	3,796.75	3,852.50	3,788.50	3,845.00	3,845.00	1,248,787
Jan 21, 2021	3,841.50	3,859.75	3,836.50	3,846.00	3,846.00	1,068,271
Jan 22, 2021	3,846.75	3,849.00	3,813.25	3,834.25	3,834.25	1,186,856
Jan 25, 2021	3,835.50	3,853.25	3,788.50	3,848.50	3,848.50	1,763,898
Jan 26, 2021	3,845.00	3,862.25	3,821.50	3,842.50	3,842.50	1,172,461
Jan 27, 2021	3,845.25	3,853.00	3,706.50	3,744.25	3,744.25	2,572,020
Jan 28, 2021	3,735.25	3,823.50	3,703.50	3,779.25	3,779.25	2,149,910
Jan 29, 2021	3,770.25	3,777.25	3,685.50	3,705.25	3,705.25	2,691,820
Feb 01, 2021	3,692.25	3,777.00	3,656.50	3,765.75	3,765.75	1,687,396
Feb 02, 2021	3,764.75	3,835.75	3,760.00	3,818.25	3,818.25	1,419,765
Feb 03, 2021	3,829.50	3,843.50	3,807.75	3,823.50	3,823.50	1,285,692
Feb 04, 2021	3,832.75	3,869.75	3,811.25	3,864.50	3,864.50	1,136,404
Feb 05, 2021	3,864.25	3,888.25	3,860.00	3,880.25	3,880.25	1,138,874
Feb 08, 2021	3,889.00	3,911.25	3,885.50	3,908.00	3,908.00	972,437
Feb 09, 2021	3,910.50	3,913.25	3,895.00	3,905.50	3,905.50	881,922
Feb 10, 2021	3,912.25	3,928.50	3,878.25	3,903.00	3,903.00	1,560,824
Feb 11, 2021	3,907.00	3,920.50	3,884.50	3,912.00	3,912.00	1,296,054
Feb 12, 2021	3,905.25	3,936.25	3,890.25	3,931.00	3,931.00	1,050,298
Feb 16, 2021	3,936.50	3,959.25	3,918.75	3,927.75	3,927.75	1,450,425
Feb 17, 2021	3,929.00	3,932.25	3,896.50	3,928.00	3,928.00	1,382,825
Feb 18, 2021	3,928.25	3,936.00	3,880.50	3,909.50	3,909.50	1,536,949
Feb 19, 2021	3,910.50	3,931.00	3,890.25	3,903.00	3,903.00	1,427,294
Feb 22, 2021	3,905.50	3,914.50	3,861.25	3,873.50	3,873.50	1,514,278
Feb 23, 2021	3,878.00	3,896.00	3,804.75	3,878.00	3,878.00	2,282,940
Feb 24, 2021	3,876.25	3,927.75	3,851.75	3,922.50	3,922.50	1,944,661
Feb 25, 2021	3,923.50	3,934.50	3,810.25	3,828.00	3,828.00	2,863,387
Feb 26, 2021	3,823.25	3,858.50	3,785.00	3,809.25	3,809.25	3,010,481
Mar 01, 2021	3,817.25	3,912.00	3,812.50	3,898.75	3,898.75	1,692,835
Mar 02, 2021	3,903.25	3,906.50	3,865.50	3,867.50	3,867.50	1,641,396
Mar 03, 2021	3,867.50	3,898.00	3,813.00	3,816.75	3,816.75	2,203,398
Mar 04, 2021	3,818.00	3,842.25	3,720.50	3,765.50	3,765.50	3,192,468
Mar 05, 2021	3,765.50	3,850.00	3,728.50	3,839.00	3,839.00	2,948,117
Mar 08, 2021	3,854.75	3,878.75	3,796.25	3,819.25	3,819.25	2,198,363
Mar 09, 2021	3,831.25	3,901.25	3,826.25	3,873.25	3,873.25	1,704,837
Mar 10, 2021	3,878.50	3,916.25	3,856.25	3,896.50	3,896.50	1,845,205
Mar 11, 2021	3,907.75	3,958.50	3,893.00	3,936.75	3,936.75	1,599,748
Mar 12, 2021	3,937.50	3,947.50	3,910.25	3,942.25	3,942.25	1,448,886
